<svg xmlns="http://www.w3.org/2000/svg" width="64" height="64">
    <path fill="#F09108" fill-rule="evenodd" d="M48.786 40.844L52.75 64 31.999 53.067 11.247 64l3.963-23.156-15.212-3.23 21.624-16.547L31.999 0l10.375 21.067 21.623 16.547-15.211 3.23zM31.95 22.523c-4.838 0-8.773 3.945-8.773 8.792 0 4.848 3.935 8.791 8.773 8.791 4.837 0 8.772-3.943 8.772-8.791 0-4.847-3.935-8.792-8.772-8.792zm.429 20.527h-.067c-7.9.044-13.517 7.866-13.753 8.199l3.002 2.134c.047-.067 4.783-6.623 10.786-6.646h.031c3.484 0 6.872 2.24 10.067 6.66l2.98-2.164c-3.928-5.431-8.316-8.183-13.046-8.183zm-.429-6.622c-2.813 0-5.102-2.294-5.102-5.113 0-2.819 2.289-5.113 5.102-5.113s5.102 2.294 5.102 5.113c0 2.819-2.289 5.113-5.102 5.113z"/>
</svg>
